{"name":": Obtener informacion de los usuarios creados","id":"como-usuario-de-servicios-backend;:-obtener-informacion-de-los-usuarios-creados","scenarioId":"consumoe2e/servicios:: Obtener informacion de los usuarios creados","methodName":": Obtener informacion de los usuarios creados","testSteps":[{"number":1,"description":"1: : Obtener informacion de los usuarios creados ({peticion\u003dget, endpoint\u003dapi/users?page\u003d2, body\u003dn/a, statusCode\u003d200})","duration":3445,"startTime":"2024-09-26T23:11:45.876624500-05:00[America/Bogota]","result":"SUCCESS","precondition":false,"level":0,"lineNumber":10,"children":[{"number":2,"description":"Dado Consumo el api con la peticion get y endpoint api/users?page\u003d2 y body n/a","duration":3098,"startTime":"2024-09-26T23:11:46.075941-05:00[America/Bogota]","result":"SUCCESS","precondition":false,"level":1,"children":[{"number":3,"description":"User obtener informacion","duration":2836,"startTime":"2024-09-26T23:11:46.338100-05:00[America/Bogota]","result":"SUCCESS","precondition":false,"level":2,"children":[{"number":4,"description":"user execute a GET on the resource api/users?page\u003d2","duration":2782,"startTime":"2024-09-26T23:11:46.364431500-05:00[America/Bogota]","result":"SUCCESS","precondition":false,"level":3,"children":[{"number":5,"description":"GET https://reqres.in/api/users?page\u003d2","duration":0,"startTime":"2024-09-26T23:11:49.136151100-05:00[America/Bogota]","result":"SUCCESS","restQuery":{"method":"GET","path":"https://reqres.in/api/users?page\u003d2","content":"","contentType":"application/json","requestHeaders":"Accept\u003d*/*\r\n\t\t\t\tContent-Type\u003dapplication/json","requestCookies":"","responseHeaders":"Date: Fri, 27 Sep 2024 04:11:51 GMT\r\nContent-Type: application/json; charset\u003dutf-8\r\nTransfer-Encoding: chunked\r\nConnection: keep-alive\r\nReport-To: {\"group\":\"heroku-nel\",\"max_age\":3600,\"endpoints\":[{\"url\":\"https://nel.heroku.com/reports?ts\u003d1727387777\u0026sid\u003dc4c9725f-1ab0-44d8-820f-430df2718e11\u0026s\u003dvjqyVgavz7NWEYouBow3bMswpFQI3nX130F6bk4Lo5o%3D\"}]}\r\nReporting-Endpoints: heroku-nel\u003dhttps://nel.heroku.com/reports?ts\u003d1727387777\u0026sid\u003dc4c9725f-1ab0-44d8-820f-430df2718e11\u0026s\u003dvjqyVgavz7NWEYouBow3bMswpFQI3nX130F6bk4Lo5o%3D\r\nNel: {\"report_to\":\"heroku-nel\",\"max_age\":3600,\"success_fraction\":0.005,\"failure_fraction\":0.05,\"response_headers\":[\"Via\"]}\r\nX-Powered-By: Express\r\nAccess-Control-Allow-Origin: *\r\nEtag: W/\"406-ut0vzoCuidvyMf8arZpMpJ6ZRDw\"\r\nVia: 1.1 vegur\r\nCache-Control: max-age\u003d14400\r\nCF-Cache-Status: HIT\r\nAge: 7070\r\nVary: Accept-Encoding\r\nServer: cloudflare\r\nCF-RAY: 8c98a6ef6b216dd9-MIA\r\nContent-Encoding: gzip\r","responseCookies":"\r","responseBody":"{\n    \"page\": 2,\n    \"per_page\": 6,\n    \"total\": 12,\n    \"total_pages\": 2,\n    \"data\": [\n        {\n            \"id\": 7,\n            \"email\": \"michael.lawson@reqres.in\",\n            \"first_name\": \"Michael\",\n            \"last_name\": \"Lawson\",\n            \"avatar\": \"https://reqres.in/img/faces/7-image.jpg\"\n        },\n        {\n            \"id\": 8,\n            \"email\": \"lindsay.ferguson@reqres.in\",\n            \"first_name\": \"Lindsay\",\n            \"last_name\": \"Ferguson\",\n            \"avatar\": \"https://reqres.in/img/faces/8-image.jpg\"\n        },\n        {\n            \"id\": 9,\n            \"email\": \"tobias.funke@reqres.in\",\n            \"first_name\": \"Tobias\",\n            \"last_name\": \"Funke\",\n            \"avatar\": \"https://reqres.in/img/faces/9-image.jpg\"\n        },\n        {\n            \"id\": 10,\n            \"email\": \"byron.fields@reqres.in\",\n            \"first_name\": \"Byron\",\n            \"last_name\": \"Fields\",\n            \"avatar\": \"https://reqres.in/img/faces/10-image.jpg\"\n        },\n        {\n            \"id\": 11,\n            \"email\": \"george.edwards@reqres.in\",\n            \"first_name\": \"George\",\n            \"last_name\": \"Edwards\",\n            \"avatar\": \"https://reqres.in/img/faces/11-image.jpg\"\n        },\n        {\n            \"id\": 12,\n            \"email\": \"rachel.howell@reqres.in\",\n            \"first_name\": \"Rachel\",\n            \"last_name\": \"Howell\",\n            \"avatar\": \"https://reqres.in/img/faces/12-image.jpg\"\n        }\n    ],\n    \"support\": {\n        \"url\": \"https://reqres.in/#support-heading\",\n        \"text\": \"To keep ReqRes free, contributions towards server costs are appreciated!\"\n    }\n}","statusCode":200},"precondition":false,"level":4}]}]}]},{"number":6,"description":"Cuando verifico el estado de la peticion 200","duration":139,"startTime":"2024-09-26T23:11:49.183121-05:00[America/Bogota]","result":"SUCCESS","precondition":false,"level":1,"children":[{"number":7,"description":"Then  should be (200)","duration":11,"startTime":"2024-09-26T23:11:49.305652900-05:00[America/Bogota]","result":"SUCCESS","precondition":false,"level":2}]}]}],"userStory":{"id":"consumoe2e/servicios","storyName":"Como usuario de servicios BackEnd","displayName":"Como usuario de servicios BackEnd","path":"consumoe2e/servicios","pathElements":[{"name":"consumoe2e","description":""},{"name":"servicios","description":""}],"type":"feature"},"title":": Obtener informacion de los usuarios creados","description":"","tags":[{"name":"getLista","type":"tag","displayName":"getLista"}],"startTime":"2024-09-26T23:11:45.843861200-05:00[America/Bogota]","duration":3292,"projectKey":"","isManualTestingUpToDate":false,"dataTable":{"headers":["peticion","endpoint","body","statusCode"],"rows":[{"values":["get","api/users?page\u003d2","n/a","200"],"lineNumber":10,"result":"SUCCESS"}],"predefinedRows":true,"scenarioOutline":"Dado Consumo el api con la peticion \u003cpeticion\u003e y endpoint \u003cendpoint\u003e y body \u003cbody\u003e\n\rCuando verifico el estado de la peticion \u003cstatusCode\u003e\n\r","dataSetDescriptors":[{"startRow":0,"rowCount":0,"name":"","description":""}]},"manual":false,"testSource":"Cucumber","actors":[{"name":"user","can":["browse the web","call an API at https://reqres.in/"]}],"order":0,"result":"SUCCESS","scenarioOutline":"Dado Consumo el api con la peticion \u003cpeticion\u003e y endpoint \u003cendpoint\u003e y body \u003cbody\u003e\r\nCuando verifico el estado de la peticion \u003cstatusCode\u003e"}